{
	"status": 1,
	"payloadTTL": 0,
	"apiVersion": "5",
	"requestedCategoryDetails": 
	{
		"name": "Root",
		"id": 2,
		"extendedAttributes": 
		[
			
		],

		"iconCreatedDateTime": "0",
		"contextPaths": 
		[
			"1.2"
		],

		"price": "",
		"iconURL": "",
		"categoryAttributes": 
		{
			"isSubscribable": false
		},

		"groupType": "-1",
		"locale": "en_CA",
		"description": "Root node"
	},

	"apiRevision": "4",
	"payload": "${json-unit.ignore}",
	"systemTime": "${json-unit.ignore}"
}