{
	"systemTime": "${json-unit.ignore}",
	"appReportingURL": "https://san-dit-rptec.quickplay.com/eventcontroller/event/log",
	"mak": "97118462950001035330689LB35839804ABCDEF",
	"activityLogInterval": "-1",
	"status": 1,
	"sessionId": "${json-unit.ignore}",
	"quickplayId": "86ce7463-95aa-4463-8201-ee7d1cfb41cd_1403700758044",
	"allowedRoamingCountries": 
	[
		"",
		"tn",
		"ca",
		"tr",
		"no",
		"jp",
		"by",
		"jo",
		"nz",
		"br",
		"th",
		"gb",
		"bo",
		"fi",
		"om",
		"fr",
		"bg",
		"sv",
		"bh",
		"sy",
		"be",
		"kw",
		"sk",
		"cz",
		"sd",
		"cy",
		"se",
		"kr",
		"sg",
		"cs",
		"si",
		"cr",
		"pe",
		"co",
		"cn",
		"pa",
		"sa",
		"cl",
		"pl",
		"rs",
		"gt",
		"ru",
		"ch",
		"lb",
		"gr",
		"ph",
		"hr",
		"ro",
		"dz",
		"hu",
		"hk",
		"lv",
		"lu",
		"za",
		"lt",
		"hn",
		"ly",
		"vn",
		"ec",
		"de",
		"id",
		"uy",
		"dk",
		"ma",
		"ie",
		"ve",
		"me",
		"do",
		"mk",
		"iq",
		"is",
		"ye",
		"it",
		"ba",
		"mt",
		"at",
		"ar",
		"us",
		"mx",
		"il",
		"my",
		"qa",
		"in",
		"au",
		"eg",
		"al",
		"ee",
		"py",
		"tw",
		"pt",
		"ua",
		"ni",
		"es",
		"pr",
		"nl",
		"ae"
	],

	"appValid": true,
	"subscribed": "0",
	"optInStatusMap": 
	[
		
	],

	"appMessage": "",
	"usesImageResizer": false,
	"applicationExpiryDate": "1415211604000",
	"apiRevision": "4",
	"apiVersion": "5",
	"appReportingAuthToken": ":555xjhwjy"
}